<svg width="59" height="33" viewBox="0 0 59 33" fill="none" xmlns="http://www.w3.org/2000/svg">
<path d="M0 14.9065H59V24.9065H0V14.9065Z" fill="#32A8FE"/>
<path d="M52.4437 11.2072C52.4425 11.2051 52.4416 11.2029 52.4404 11.2008L47.4803 3.0159C46.3536 1.15562 44.3023 0 42.1266 0H23.676C21.5365 0 19.5686 1.07379 18.4119 2.87196L13.2002 10.9685L6.89954 14.118C5.72785 14.7038 5 15.8816 5 17.1916V23.7795C5 24.7296 5.39874 25.6459 6.09371 26.2932L7.42371 27.5331C8.06231 28.1274 8.89426 28.4547 9.76624 28.4547H11.2137C11.6571 30.8578 13.7667 32.6844 16.2962 32.6844C18.8257 32.6844 20.9351 30.8579 21.3787 28.4547H25.5606C26.0795 28.4547 26.5001 28.034 26.5001 27.5152C26.5001 26.9964 26.0795 26.5757 25.5606 26.5757H21.3807C20.9355 24.1583 18.7531 22.345 16.2961 22.345C13.8382 22.345 11.657 24.1607 11.2123 26.5757H9.76624C9.37089 26.5757 8.99357 26.4272 8.70448 26.1581L7.37476 24.9186C7.05973 24.6251 6.87906 24.2099 6.87906 23.7795V23.3207H8.59436C10.0934 23.3207 11.313 22.1012 11.313 20.6021V19.7263C11.313 18.2273 10.0935 17.0077 8.59436 17.0077H6.89052C6.95103 16.4893 7.26436 16.0363 7.73977 15.7986L14.0731 12.6328H24.8339C25.9057 12.6328 26.7777 11.7609 26.7777 10.689V6.01582C26.7777 4.944 25.9057 4.07202 24.8339 4.07202H19.8743L19.9922 3.88881C20.8016 2.6304 22.1787 1.87916 23.676 1.87916H42.1265C43.5446 1.87916 44.8866 2.58108 45.7011 3.72909H45.4346C44.3628 3.72909 43.4908 4.60107 43.4908 5.67279V10.6834C43.4908 11.7552 44.3628 12.6272 45.4346 12.6272H51.0516C51.165 12.9293 51.2248 13.2503 51.2248 13.5762V23.8707C51.2248 25.1539 50.3265 26.2312 49.1259 26.5072C48.6533 24.1198 46.4846 22.3449 44.0543 22.3449C41.5969 22.3449 39.4141 24.1604 38.9706 26.5756H34.0574C33.5386 26.5756 33.1179 26.9963 33.1179 27.5151C33.1179 28.0339 33.5386 28.4546 34.0574 28.4546H38.972C39.4155 30.8577 41.525 32.6843 44.0544 32.6843C46.5992 32.6843 48.7189 30.8356 49.1447 28.4109C51.3777 28.1051 53.1039 26.1863 53.1039 23.8707V13.5762C53.104 12.7399 52.8754 11.9207 52.4437 11.2072ZM16.2961 30.8052C14.4828 30.8052 13.0073 29.3308 13.0056 27.518C13.0134 26.1998 13.8135 24.9861 15.0338 24.4765C15.4328 24.3099 15.8638 24.224 16.2962 24.224C18.1106 24.224 19.5868 25.7002 19.5868 27.5146C19.5867 29.3292 18.1105 30.8052 16.2961 30.8052ZM9.43393 19.7264V20.6022C9.43393 21.0651 9.05736 21.4417 8.59436 21.4417H6.87906V18.8869H8.59436C9.05736 18.8868 9.43393 19.2635 9.43393 19.7264ZM24.8339 5.95099C24.8696 5.95099 24.8986 5.98012 24.8986 6.01572V10.689C24.8986 10.7247 24.8696 10.7537 24.8339 10.7537H15.5734L18.6647 5.9509H24.8339V5.95099ZM44.0545 30.8052C42.2415 30.8052 40.7662 29.3312 40.7641 27.5187C40.7641 27.5175 40.7643 27.5163 40.7643 27.5152C40.7643 26.2108 41.5267 25.0813 42.6292 24.5491C43.0607 24.3409 43.5443 24.2241 44.0545 24.2241C45.8689 24.2241 47.3451 25.7003 47.3451 27.5147C47.3451 29.3292 45.8689 30.8052 44.0545 30.8052ZM45.3699 10.6835V5.67289C45.3699 5.63719 45.399 5.60825 45.4346 5.60825H46.8539L49.9685 10.7483H45.4346C45.3989 10.7482 45.3699 10.7191 45.3699 10.6835Z" fill="black"/>
<path d="M41.0787 10.689V6.01582C41.0787 4.944 40.2067 4.07202 39.135 4.07202H31.1844C30.1127 4.07202 29.2407 4.944 29.2407 6.01582V10.689C29.2407 11.7609 30.1127 12.6328 31.1844 12.6328H39.135C40.2067 12.6329 41.0787 11.7609 41.0787 10.689ZM31.1197 10.689V6.01582C31.1197 5.98011 31.1487 5.95108 31.1843 5.95108H39.1349C39.1706 5.95108 39.1996 5.98021 39.1996 6.01582V10.689C39.1996 10.7247 39.1705 10.7538 39.1349 10.7538H31.1843C31.1487 10.7539 31.1197 10.7247 31.1197 10.689Z" fill="black"/>
<path d="M22.9083 16.1448C22.3894 16.1448 21.9688 16.5655 21.9688 17.0843C21.9688 17.6031 22.3894 18.0238 22.9083 18.0238H25.0264C25.5453 18.0238 25.9659 17.6031 25.9659 17.0843C25.9659 16.5655 25.5453 16.1448 25.0264 16.1448H22.9083Z" fill="black"/>
<path d="M30.7448 27.1553C30.5905 26.7853 30.2083 26.5482 29.808 26.578C29.4001 26.6083 29.0511 26.9097 28.961 27.3085C28.7755 28.1295 29.7293 28.7636 30.418 28.2826C30.7735 28.0344 30.9115 27.5553 30.7448 27.1553Z" fill="black"/>
</svg>
