<svg width="69" height="48" viewBox="0 0 69 48" fill="none" xmlns="http://www.w3.org/2000/svg">
<path d="M0 22.9065H69V32.9065H0V22.9065Z" fill="#32A8FE"/>
<path d="M58.6163 33.7045C57.6159 32.3851 56.2434 31.3617 54.7038 30.7745C54.6885 30.4872 54.6129 30.2024 54.476 29.9409C53.9152 28.8696 52.8505 28.7956 51.6383 28.7849C50.9154 26.6156 49.7003 22.9322 48.5216 19.3594C48.3888 18.9568 47.9552 18.738 47.5521 18.8709C47.1495 19.0038 46.9307 19.4379 47.0636 19.8405C48.1764 23.2141 49.3219 26.6865 50.0558 28.8921C48.5288 29.1133 47.0663 29.6728 45.7801 30.5376C45.9559 29.4826 45.9048 28.4431 45.6593 27.4647C42.5364 14.4253 42.6692 15.1611 42.6044 14.2139C42.8155 14.2323 42.7043 14.2274 45.2113 14.2274C45.5019 15.1071 45.8002 16.0114 46.1011 16.9227C46.2339 17.3253 46.6677 17.5444 47.0707 17.4112C47.4734 17.2783 47.692 16.8442 47.5591 16.4417C47.3128 15.6953 47.0685 14.9548 46.8283 14.2275H47.792C48.3939 14.2275 48.9116 13.8601 49.1324 13.3381H50.5669C51.3074 13.3381 51.9099 12.7356 51.9099 11.9951V9.42278C51.9099 8.68287 51.3074 8.08084 50.5669 8.08084H49.1325C48.9118 7.55815 48.394 7.19034 47.7919 7.19034H44.2129L42.2758 2.81103C42.1529 2.5331 41.8776 2.35396 41.5737 2.35396H39.6071L40.0075 0.983147C40.1264 0.576131 39.8929 0.149871 39.486 0.0310213C39.0782 -0.0879305 38.6526 0.145673 38.5337 0.552689L37.2031 5.10766C37.0842 5.51468 37.3177 5.94094 37.7246 6.05979C38.1323 6.17863 38.5581 5.94472 38.6769 5.53812L39.1585 3.88938H41.0738L42.5428 7.21051C41.865 7.28165 41.2291 7.54576 40.6994 7.97653H37.6288C37.0696 7.97653 36.528 8.20941 36.1437 8.61489L34.1671 10.6969C33.8753 11.0044 33.8879 11.4902 34.1953 11.7822C34.5026 12.0738 34.9885 12.0616 35.2807 11.7539L37.2576 9.67154C37.3538 9.56999 37.4892 9.51184 37.6289 9.51184H39.6058C39.0508 11.0505 39.6278 12.8023 41.0504 13.6922C41.0576 15.2155 41.0509 14.8142 44.1682 27.8304C44.6471 29.7386 44.1612 31.7512 42.8884 33.2294C42.676 33.4765 42.3692 33.6183 42.0467 33.6183C38.1598 33.6183 37.7806 33.7062 36.7954 33.3134C36.4018 33.1562 35.955 33.3483 35.798 33.7422C35.6409 34.1361 35.8329 34.5826 36.2267 34.7396C37.5581 35.2705 38.2486 35.1538 42.0381 35.1538C41.6627 36.089 41.4269 37.082 41.3451 38.1017H30.5319C30.9313 37.5442 31.1294 36.9255 31.1294 36.2304C31.1294 33.699 29.9658 31.4217 27.853 29.8183C25.3577 27.9246 22.0096 27.2578 18.9273 27.6367C18.5064 27.6884 18.2072 28.0715 18.2589 28.4923C18.3107 28.9132 18.6942 29.2124 19.1146 29.1607C24.1266 28.5448 29.5939 31.1825 29.5939 36.2739C29.5939 37.2415 28.6578 38.0968 27.4339 38.1018C9.89442 38.1018 10.9964 38.104 10.8904 38.0984C9.96496 38.0422 9.41616 37.1291 9.58466 36.6009C10.5251 33.64 11.8398 33.0596 12.8447 31.9657C13.8612 31.0573 15.0306 30.3464 16.3216 29.8526C16.7177 29.7011 16.9159 29.2573 16.7643 28.8613C16.6129 28.4653 16.1694 28.2669 15.773 28.4185C14.2932 28.9846 12.9528 29.8027 11.789 30.8501C11.7679 30.869 11.748 30.8891 11.7292 30.9102C11.6492 30.9999 11.5213 31.1203 11.3704 31.2591C12.4035 28.9364 13.623 27.0065 15.0633 25.4119H31.4931C32.7872 31.0041 32.7689 31.4079 33.5241 32.5453C33.7585 32.8984 34.2349 32.9947 34.5882 32.7603C34.9414 32.5257 35.0376 32.0493 34.803 31.696C34.2411 30.8497 34.3174 30.8065 32.8706 24.5547V22.6334C32.8706 21.2159 31.7174 20.0626 30.2998 20.0626H18.4737C16.2311 20.0626 14.2927 21.584 13.7599 23.7621C13.697 24.0193 13.7126 24.2825 13.7985 24.524C9.83956 28.9925 8 35.7683 8 36.9081C8 38.4129 9.33734 39.6372 10.9811 39.6372H12.5691C12.877 44.2353 16.7132 47.8828 21.3875 47.8828C26.0624 47.8828 29.8992 44.2351 30.2069 39.6368C43.546 39.6368 42.2525 39.6372 42.7355 39.6372C43.0565 44.0937 46.7283 47.8828 51.5658 47.8828C58.8821 47.8828 62.9929 39.4767 58.6163 33.7045ZM49.2464 9.61605H50.3745V11.8024H49.2464V9.61605ZM42.1311 12.5308C40.8355 11.9704 40.531 10.2887 41.5131 9.3068C42.1875 8.63383 42.8825 8.72555 43.7173 8.72555H47.711V12.6919C42.5078 12.6919 42.6377 12.7498 42.1311 12.5308ZM18.4737 21.5976H30.2998C30.8708 21.5976 31.3352 22.0622 31.3352 22.6331V23.8756H15.3231C15.7679 22.522 17.0284 21.5976 18.4737 21.5976ZM25.2731 39.6372C24.9924 41.1357 22.9497 43.1948 21.3705 43.1948C19.7919 43.1948 17.8239 41.1356 17.5432 39.6372H25.2731ZM21.3875 46.3474C17.5602 46.3474 14.4131 43.3879 14.1085 39.6371H16.6582C16.9526 41.9857 18.9605 43.8088 21.3875 43.8088C23.815 43.8088 25.8232 41.9857 26.1177 39.6371C28.2671 39.6371 26.5745 39.6367 28.6675 39.6367C28.3631 43.3876 25.2155 46.3474 21.3875 46.3474ZM52.7631 30.4029C53.0927 30.4484 53.2672 30.8136 53.1192 31.1055L50.4487 36.3756C49.909 37.4404 48.8322 38.1018 47.6385 38.1018C43.4582 38.1018 43.1797 38.1014 42.8841 38.1014C43.3339 33.1656 47.8923 29.7313 52.7631 30.4029ZM52.925 35.1725C54.3215 35.5418 55.5991 37.4251 55.5991 38.9162C55.5991 40.6985 53.1035 43.1948 51.3205 43.1948C49.7208 43.1948 47.7412 41.1652 47.4848 39.6371C49.5823 39.6371 51.129 38.4295 51.8182 37.0696L52.925 35.1725ZM51.5658 46.3474C47.5961 46.3474 44.5905 43.2622 44.2742 39.6371H46.8365C47.1309 41.9857 49.1388 43.8088 51.5658 43.8088C54.1954 43.8088 56.3346 41.67 56.3346 39.0409C56.3346 36.9536 55.4994 34.3464 53.6019 33.7045L54.2608 32.2492C57.0051 33.3424 58.8721 36.0479 58.8721 39.0409C58.8721 43.0697 55.5946 46.3474 51.5658 46.3474Z" fill="black"/>
<path fill-rule="evenodd" clip-rule="evenodd" d="M15.5117 39.4509C15.7828 42.4454 18.3071 44.7991 21.3709 44.7991C24.4342 44.7991 26.9585 42.4454 27.2296 39.4509H25.1448C24.884 41.3007 23.291 42.7281 21.3709 42.7281C19.4504 42.7281 17.8573 41.3003 17.5965 39.4509H15.5117Z" fill="black"/>
<path fill-rule="evenodd" clip-rule="evenodd" d="M47.5458 39.4512H45.4609C45.732 42.4457 48.2564 44.7994 51.3201 44.7994C54.5636 44.7994 57.2029 42.1606 57.2029 38.9164C57.2029 36.5327 55.7776 34.4754 53.7346 33.552L52.8071 35.407C54.172 35.9876 55.1314 37.3421 55.1314 38.9164C55.1314 41.0185 53.4216 42.7283 51.3201 42.7283C49.3996 42.7283 47.8066 41.3006 47.5458 39.4512Z" fill="black"/>
</svg>
