<svg width="100" height="100" viewBox="0 0 100 100" fill="none" xmlns="http://www.w3.org/2000/svg">
<rect width="100" height="100" fill="#32A8FE"/>
<path d="M45.7148 60.3442C45.7148 62.8442 44.6992 65.0317 42.668 66.9067C40.6758 68.7817 38.3125 69.7192 35.5781 69.7192C31.2813 69.7192 27.9805 68.2935 25.6758 65.4419C23.3711 62.5903 22.2188 58.645 22.2188 53.606C22.2188 48.9185 24.1914 44.1919 28.1367 39.4263C32.1211 34.6606 36.9063 31.0474 42.4922 28.5864L45.0703 32.7466C40.6563 34.895 37.1992 37.395 34.6992 40.2466C32.1992 43.0981 30.7539 46.5552 30.3633 50.6177H33.6445C36.0664 50.6177 38.0391 50.8911 39.5625 51.438C41.0859 51.9849 42.3164 52.7466 43.2539 53.7231C44.1523 54.6606 44.7773 55.6958 45.1289 56.8286C45.5195 57.9614 45.7148 59.1333 45.7148 60.3442ZM74.6016 60.3442C74.6016 62.8442 73.5859 65.0317 71.5547 66.9067C69.5625 68.7817 67.1992 69.7192 64.4648 69.7192C60.168 69.7192 56.8672 68.2935 54.5625 65.4419C52.2578 62.5903 51.1055 58.645 51.1055 53.606C51.1055 48.9185 53.0781 44.1919 57.0234 39.4263C61.0078 34.6606 65.793 31.0474 71.3789 28.5864L73.957 32.7466C69.543 34.895 66.0859 37.395 63.5859 40.2466C61.0859 43.0981 59.6406 46.5552 59.25 50.6177H62.5313C64.9531 50.6177 66.9258 50.8911 68.4492 51.438C69.9727 51.9849 71.2031 52.7466 72.1406 53.7231C73.0391 54.6606 73.6641 55.6958 74.0156 56.8286C74.4063 57.9614 74.6016 59.1333 74.6016 60.3442Z" fill="white"/>
</svg>
