<svg width="69" height="38" viewBox="0 0 69 38" fill="none" xmlns="http://www.w3.org/2000/svg">
<path d="M0 17.9062H69V27.9062H0V17.9062Z" fill="#32A8FE"/>
<path d="M24.6329 31.1758H22.5663C22.0314 31.1758 21.5977 31.6095 21.5977 32.1445C21.5977 32.6795 22.0314 33.1132 22.5663 33.1132H24.6329C25.1679 33.1132 25.6016 32.6795 25.6016 32.1445C25.6016 31.6095 25.1679 31.1758 24.6329 31.1758Z" fill="black"/>
<path d="M68.0313 33.2423H66.6106L61.9575 22.075C61.6456 21.3266 60.9204 20.8431 60.1095 20.8431H59.7652C58.6612 20.8431 57.7632 21.7411 57.7632 22.845V31.1757H53.4076C53.3918 31.094 53.374 31.0129 53.3544 30.9325C54.6297 30.5731 55.5675 29.4001 55.5675 28.0114V25.9448C55.5675 25.1922 55.1497 24.536 54.5342 24.1941V15.6121C54.5342 13.9385 53.1727 12.5769 51.499 12.5769H34.9022V4.49689C34.9022 3.41015 34.479 2.38851 33.7105 1.62014L32.5519 0.461463C32.1735 0.0831581 31.5602 0.0831581 31.182 0.461463C30.8037 0.839768 30.8037 1.45314 31.182 1.83132L32.3407 2.99C32.7431 3.39246 32.9649 3.92769 32.9649 4.49689V12.5769H30.5569L28.9693 6.22671C29.4072 6.13372 29.7359 5.74508 29.7359 5.27946C29.7359 4.74449 29.3022 4.31077 28.7673 4.31077H12.235C11.7 4.31077 11.2663 4.74449 11.2663 5.27946C11.2663 5.81444 11.7 6.24815 12.235 6.24815H12.2994V9.47711H7.06849C6.53352 9.47711 6.0998 9.91083 6.0998 10.4458V14.139C4.86724 14.8389 4.03327 16.1627 4.03327 17.6787V24.1941C3.41783 24.536 3 25.1922 3 25.9448V28.0114C3 29.4001 3.93782 30.5731 5.21313 30.9325C5.11807 31.3213 5.06654 31.7269 5.06654 32.1444C5.06654 34.9575 7.35523 37.2462 10.1683 37.2462H48.3992C50.8811 37.2462 52.9536 35.4644 53.4076 33.1131H57.7632V33.1777C57.7632 34.2816 58.6612 35.1797 59.7652 35.1797H65.9431C65.9504 35.1798 65.9578 35.1799 65.9652 35.1799C65.9725 35.1799 65.9799 35.1799 65.9873 35.1797H68.0313C68.5663 35.1797 69 34.7459 69 34.211C69 33.676 68.5663 33.2423 68.0313 33.2423ZM15.1767 33.1131H18.4344C18.9694 33.1131 19.4031 32.6794 19.4031 32.1444C19.4031 31.6095 18.9694 31.1757 18.4344 31.1757H15.1767C14.9459 29.98 14.2968 28.9319 13.3876 28.1902L19.5544 26.6179C19.5403 26.7362 19.5323 26.8562 19.5323 26.9782C19.5323 28.6519 20.8939 30.0134 22.5675 30.0134H36C37.6736 30.0134 39.0352 28.6519 39.0352 26.9782C39.0352 26.8562 39.0271 26.736 39.0131 26.6177L45.1801 28.1902C44.2708 28.9319 43.6218 29.9801 43.391 31.1757H28.7671C28.2321 31.1757 27.7984 31.6095 27.7984 32.1444C27.7984 32.6794 28.2321 33.1131 28.7671 33.1131H43.3908C43.5488 33.9312 43.9028 34.6797 44.4018 35.3088H14.1656C14.6647 34.6797 15.0187 33.9312 15.1767 33.1131ZM18.3699 6.24815H26.9775L28.8317 13.6647V16.438L20.7668 14.4217C19.3555 14.069 18.3699 12.8066 18.3699 11.3518V6.24815ZM33.171 25.8802C33.0384 26.221 32.9648 26.591 32.9648 26.9781C32.9648 27.3652 33.0384 27.7352 33.171 28.0759H25.3963C25.529 27.7352 25.6026 27.3652 25.6026 26.9781C25.6026 26.591 25.529 26.221 25.3963 25.8802H33.171ZM36.3517 25.939C36.7849 26.086 37.0978 26.4958 37.0978 26.9781C37.0978 27.5835 36.6054 28.0759 36 28.0759C35.3946 28.0759 34.9022 27.5835 34.9022 26.9781C34.9022 26.3727 35.3946 25.8802 36 25.8802C36.065 25.8802 36.1283 25.887 36.1901 25.8978L36.3517 25.939ZM21.4697 26.9781C21.4697 26.4963 21.782 26.087 22.2145 25.9395L22.2861 25.9213C22.3067 25.916 22.3265 25.9092 22.3465 25.9026C22.4179 25.8879 22.4918 25.8802 22.5675 25.8802C23.1729 25.8802 23.6654 26.3727 23.6654 26.9781C23.6654 27.5835 23.1729 28.0759 22.5675 28.0759C21.9621 28.0759 21.4697 27.5835 21.4697 26.9781ZM48.3969 28.98C48.3979 28.98 48.399 28.9802 48.4 28.9802C48.4008 28.9802 48.4014 28.98 48.4022 28.98C49.8079 28.9813 51.0016 29.9042 51.4114 31.1757H45.3871C45.7971 29.904 46.9909 28.9811 48.3969 28.98ZM53.6301 28.0114C53.6301 28.6167 53.1377 29.1092 52.5323 29.1092C52.5208 29.1092 52.5097 29.1105 52.4982 29.1109C51.5929 27.8909 50.1567 27.0885 48.5342 27.046L43.962 25.8801H53.5656C53.6012 25.8801 53.6301 25.909 53.6301 25.9447V28.0114ZM52.5969 15.6121V23.9429H36H30.7691V14.5143H51.499C52.1044 14.5143 52.5969 15.0068 52.5969 15.6121ZM8.03718 11.4145H12.2994V13.6102H8.10176C8.08006 13.6102 8.05875 13.6115 8.03718 13.6119V11.4145ZM8.10176 15.5476H13.2681C13.8031 15.5476 14.2368 15.1138 14.2368 14.5789V6.24815H16.4325V11.3518C16.4325 13.6972 18.0217 15.7325 20.2969 16.3012L28.8317 18.4349V23.9429H22.5675H5.97065V17.6787C5.97065 16.5036 6.92668 15.5476 8.10176 15.5476ZM6.03522 29.1092C5.42986 29.1092 4.93738 28.6167 4.93738 28.0114V25.9448C4.93738 25.9092 4.96631 25.8802 5.00196 25.8802H14.6057L10.0333 27.0462C8.41097 27.0886 6.97459 27.891 6.06932 29.111C6.05783 29.1105 6.04672 29.1092 6.03522 29.1092ZM7.00391 32.1444C7.00391 30.4005 8.42195 28.9816 10.1655 28.98C10.1662 28.98 10.1669 28.9802 10.1677 28.9802C10.1687 28.9802 10.1697 28.98 10.1708 28.98C11.9144 28.9813 13.3327 30.4004 13.3327 32.1444C13.3327 33.8892 11.9131 35.3088 10.1683 35.3088C8.4235 35.3088 7.00391 33.8892 7.00391 32.1444ZM48.3992 35.3088C46.9922 35.3088 45.7972 34.3855 45.3871 33.1131H51.4114C51.0012 34.3855 49.8063 35.3088 48.3992 35.3088ZM59.7652 33.2423C59.7295 33.2423 59.7006 33.2133 59.7006 33.1777V22.845C59.7006 22.8094 59.7295 22.7804 59.7652 22.7804H60.1096C60.1358 22.7804 60.1592 22.7961 60.1693 22.8202L64.5117 33.2423H59.7652Z" fill="black"/>
<path d="M10.8524 32.829C11.0333 32.6495 11.1366 32.3989 11.1366 32.1445C11.1366 31.89 11.0333 31.6395 10.8524 31.4599C10.6729 31.2791 10.4223 31.1758 10.1679 31.1758C9.91347 31.1758 9.6629 31.2791 9.48337 31.4599C9.30255 31.6395 9.19922 31.8887 9.19922 32.1445C9.19922 32.3989 9.30255 32.6495 9.48337 32.829C9.6629 33.0098 9.91347 33.1132 10.1679 33.1132C10.4223 33.1132 10.6729 33.0098 10.8524 32.829Z" fill="black"/>
<path d="M37.0331 20.7139C37.5681 20.7139 38.0018 20.2802 38.0018 19.7452V17.6786C38.0018 17.1437 37.5681 16.71 37.0331 16.71C36.4982 16.71 36.0645 17.1437 36.0645 17.6786V19.7452C36.0645 20.2802 36.4982 20.7139 37.0331 20.7139Z" fill="black"/>
<path d="M40.1347 20.7139C40.6697 20.7139 41.1034 20.2802 41.1034 19.7452V17.6786C41.1034 17.1437 40.6697 16.71 40.1347 16.71C39.5997 16.71 39.166 17.1437 39.166 17.6786V19.7452C39.166 20.2802 39.5997 20.7139 40.1347 20.7139Z" fill="black"/>
<path d="M43.2343 20.7139C43.7693 20.7139 44.203 20.2802 44.203 19.7452V17.6786C44.203 17.1437 43.7693 16.71 43.2343 16.71C42.6993 16.71 42.2656 17.1437 42.2656 17.6786V19.7452C42.2656 20.2802 42.6993 20.7139 43.2343 20.7139Z" fill="black"/>
</svg>
