<svg width="69" height="58" viewBox="0 0 69 58" fill="none" xmlns="http://www.w3.org/2000/svg">
<path d="M0 31.9062H69V41.9062H0V31.9062Z" fill="#32A8FE"/>
<path d="M8.69141 51.1392C8.69141 52.6333 9.90699 53.8489 11.4011 53.8489C12.8953 53.8489 14.1109 52.6333 14.1109 51.1392C14.1109 50.1753 13.5924 49.2764 12.7578 48.7931C12.347 48.5552 11.8778 48.4294 11.4011 48.4294C9.90699 48.4294 8.69141 49.645 8.69141 51.1392ZM12.3813 51.1392C12.3813 51.6796 11.9416 52.1193 11.4011 52.1193C10.8607 52.1193 10.421 51.6796 10.421 51.1392C10.421 50.5987 10.8607 50.1591 11.4011 50.1591C11.5739 50.1591 11.7432 50.2043 11.891 50.2899C12.1934 50.465 12.3813 50.7905 12.3813 51.1392Z" fill="black"/>
<path d="M18.7781 53.8489C20.2723 53.8489 21.4878 52.6333 21.4878 51.1392C21.4878 50.1753 20.9693 49.2764 20.1347 48.7931C19.7239 48.5552 19.2548 48.4294 18.7781 48.4294C17.2839 48.4294 16.0684 49.645 16.0684 51.1392C16.0684 52.6333 17.2839 53.8489 18.7781 53.8489ZM18.7781 50.1591C18.9508 50.1591 19.1201 50.2043 19.2679 50.2899C19.5704 50.4651 19.7582 50.7905 19.7582 51.1392C19.7582 51.6796 19.3186 52.1193 18.7781 52.1193C18.2377 52.1193 17.798 51.6796 17.798 51.1392C17.798 50.5987 18.2377 50.1591 18.7781 50.1591Z" fill="black"/>
<path d="M26.1609 53.8489C27.6551 53.8489 28.8707 52.6333 28.8707 51.1392C28.8707 50.1753 28.3521 49.2764 27.5175 48.7931C27.1067 48.5552 26.6376 48.4294 26.1609 48.4294C24.6667 48.4294 23.4512 49.645 23.4512 51.1392C23.4512 52.6333 24.6667 53.8489 26.1609 53.8489ZM26.1609 50.1591C26.3336 50.1591 26.5029 50.2043 26.6507 50.2899C26.9532 50.4651 27.141 50.7905 27.141 51.1392C27.141 51.6796 26.7014 52.1193 26.1609 52.1193C25.6205 52.1193 25.1808 51.6796 25.1808 51.1392C25.1808 50.5987 25.6205 50.1591 26.1609 50.1591Z" fill="black"/>
<path d="M33.5379 53.8489C35.032 53.8489 36.2476 52.6333 36.2476 51.1392C36.2476 50.1753 35.7291 49.2764 34.8945 48.7931C34.4836 48.5552 34.0145 48.4294 33.5379 48.4294C32.0437 48.4294 30.8281 49.645 30.8281 51.1392C30.8281 52.6333 32.0437 53.8489 33.5379 53.8489ZM33.5379 50.1591C33.7106 50.1591 33.8799 50.2043 34.0277 50.2899C34.3301 50.4651 34.518 50.7905 34.518 51.1392C34.518 51.6796 34.0783 52.1193 33.5379 52.1193C32.9974 52.1193 32.5577 51.6796 32.5577 51.1392C32.5577 50.5987 32.9974 50.1591 33.5379 50.1591Z" fill="black"/>
<path d="M62.6331 30.4084L47.9275 2.6209C47.3614 1.34998 46.0871 0.461182 44.6083 0.461182C43.3699 0.461182 42.2747 1.08465 41.6189 2.03375C41.6174 2.03571 41.6158 2.03733 41.6143 2.03929L27.5425 20.7943C27.3481 20.769 27.1509 20.7554 26.9517 20.7554H20.6243C18.1128 20.7554 16.0696 22.7987 16.0696 25.3101V30.9025H10.4771C8.98297 30.9025 7.7674 32.1181 7.7674 33.6123V40.0695C7.7674 41.5637 8.98297 42.7793 10.4771 42.7793H16.9344H17.9145V44.7395H11.3996C7.87083 44.7395 5 47.6103 5 51.1391C5 54.6679 7.87083 57.5387 11.3996 57.5387H33.5388C37.0675 57.5387 39.9384 54.6679 39.9384 51.1391C39.9384 47.6103 37.0675 44.7395 33.5388 44.7395H27.0239V42.7793H34.4612C34.9388 42.7793 35.326 42.3921 35.326 41.9145V39.0895L36.3063 39.0894C36.3179 39.0894 36.3292 39.0881 36.3408 39.0877C36.3587 39.087 36.3768 39.0868 36.3946 39.0849C36.4037 39.084 36.4124 39.082 36.4214 39.0809C36.4411 39.0782 36.461 39.0758 36.4803 39.0719C36.496 39.0687 36.5112 39.064 36.5265 39.06C36.5387 39.0568 36.5512 39.0542 36.5632 39.0506C36.5726 39.0476 36.5816 39.0436 36.591 39.0404C36.6084 39.0344 36.6258 39.0287 36.6426 39.0215C36.6446 39.0207 36.6464 39.0195 36.6485 39.0187C36.6981 38.9973 36.7454 38.9717 36.7895 38.9418C36.8006 38.9343 36.811 38.9258 36.8217 38.9178C36.8332 38.9093 36.8451 38.9012 36.8562 38.8921C36.8679 38.8824 36.8788 38.8717 36.89 38.8615C36.8992 38.853 36.9088 38.8451 36.9176 38.8363C36.9257 38.8282 36.9329 38.8195 36.9406 38.8111C36.9517 38.7991 36.9631 38.7874 36.9734 38.7749C36.9773 38.7702 36.9805 38.7652 36.9842 38.7604C36.9977 38.7434 37.011 38.7263 37.0231 38.7082C37.0287 38.7 37.0333 38.6913 37.0386 38.6828C37.0482 38.6677 37.0579 38.6527 37.0665 38.6369C37.1149 38.5478 37.1472 38.4488 37.1618 38.3441C37.1672 38.305 37.171 38.2653 37.171 38.2247V34.9241C37.171 33.291 36.6922 31.7097 35.7862 30.3508L34.4157 28.2951L43.9166 12.3441L57.949 33.1291C58.2767 33.6905 58.8002 34.1236 59.4254 34.3348V35.7628L59.1732 35.1349C59.0876 34.9221 58.9211 34.752 58.7102 34.6619C58.4992 34.5718 58.2611 34.5693 58.0483 34.6548L46.2297 39.4026L44.1936 37.7239C43.8251 37.4201 43.28 37.4726 42.9762 37.8411C42.6723 38.2096 42.7248 38.7547 43.0933 39.0585L49.4765 44.3209C50.6428 45.2824 52.086 45.7832 53.5473 45.7832C54.3514 45.7832 55.1612 45.6314 55.9331 45.3214L58.8761 44.1391C60.145 43.6293 60.9686 42.4796 61.1262 41.2099C61.1443 41.1402 61.1551 41.0674 61.1551 40.992V34.3348C62.2263 33.973 63 32.9592 63 31.7673C63 31.2723 62.8659 30.8082 62.6331 30.4084ZM16.0696 41.0497H10.4771C9.93669 41.0497 9.49702 40.61 9.49702 40.0695V33.6123C9.49702 33.0718 9.93669 32.6322 10.4771 32.6322H16.0696V41.0497ZM58.2313 42.5341L55.2883 43.7164C53.7017 44.3539 51.8963 44.0742 50.5768 42.9863L47.7499 40.6558L57.8906 36.582L59.2875 40.0594C59.6787 41.0329 59.2048 42.1431 58.2313 42.5341ZM44.6083 2.1908C45.3201 2.1908 45.941 2.58435 46.2672 3.16458C46.2801 3.19883 46.2944 3.23273 46.3119 3.26594L46.3676 3.37121C46.4595 3.5941 46.5109 3.83775 46.5109 4.09339C46.5109 4.45292 46.4089 4.78824 46.2349 5.07535C46.2294 5.08389 46.2234 5.09184 46.2181 5.10061L46.1818 5.16137C45.8391 5.66469 45.2618 5.99597 44.6083 5.99597C43.5593 5.99597 42.7058 5.14246 42.7058 4.09339C42.7058 3.04432 43.5593 2.1908 44.6083 2.1908ZM33.5388 46.4691C36.1138 46.4691 38.2087 48.5641 38.2087 51.1391C38.2087 53.7142 36.1138 55.8091 33.5388 55.8091H11.3996C8.82454 55.8091 6.72962 53.7142 6.72962 51.1391C6.72962 48.5641 8.82454 46.4691 11.3996 46.4691H33.5388ZM19.6441 44.7395V42.7793H25.2942V44.7395H19.6441ZM33.5964 41.0497H17.7992V31.7718C17.7992 31.7703 17.7994 31.769 17.7994 31.7673C17.7994 31.7657 17.7992 31.7644 17.7992 31.7629V25.3101C17.7992 24.0539 18.6235 22.9871 19.7594 22.621V35.043C19.7594 36.072 20.367 37.007 21.3072 37.4248C23.7923 38.5294 26.4312 39.0894 29.1507 39.0894H33.5964V41.0497ZM35.4414 34.924V37.3598H29.1507C28.1199 37.3598 27.102 37.2701 26.1014 37.0944V25.3101C26.1014 24.8325 25.7142 24.4453 25.2366 24.4453C24.759 24.4453 24.3718 24.8325 24.3718 25.3101V36.6984C23.57 36.4713 22.7816 36.1873 22.0098 35.8443C21.6935 35.7037 21.4891 35.3892 21.4891 35.043V22.485H26.9518C27.8985 22.485 28.7772 22.9554 29.3023 23.7431L34.3472 31.3102C35.063 32.3839 35.4414 33.6336 35.4414 34.924ZM33.3525 26.7002L30.7414 22.7836C30.3534 22.2015 29.8446 21.7285 29.2614 21.3852L41.2322 5.43039C41.7659 6.77327 43.0776 7.7256 44.6083 7.7256C44.624 7.7256 44.6396 7.72456 44.6552 7.72444L33.3525 26.7002ZM58.0698 30.2169L44.8949 10.7019L47.6603 6.05916C47.6843 6.02203 47.7079 5.98467 47.7307 5.94662L59.9717 29.0771C59.1861 29.1695 58.5026 29.599 58.0698 30.2169ZM60.2903 32.7475C59.7498 32.7475 59.3101 32.3078 59.3101 31.7673C59.3101 31.2269 59.7498 30.7872 60.2903 30.7872C60.8307 30.7872 61.2704 31.2269 61.2704 31.7673C61.2704 32.3078 60.8307 32.7475 60.2903 32.7475Z" fill="black"/>
</svg>
