<svg width="59" height="48" viewBox="0 0 59 48" fill="none" xmlns="http://www.w3.org/2000/svg">
<path d="M0 22.9062H59V32.9062H0V22.9062Z" fill="#32A8FE"/>
<path d="M42.8164 13.3035C42.5415 13.2818 42.2707 13.3799 42.0758 13.5749L32.3136 23.3371C31.9475 23.7032 31.9475 24.2968 32.3136 24.663L42.0758 34.4252C42.2658 34.6151 42.5333 34.7195 42.8164 34.6966C43.0912 34.6737 43.342 34.531 43.502 34.3065C45.6676 31.2687 46.8122 27.7049 46.8122 24C46.8122 20.2951 45.6676 16.7313 43.502 13.6936C43.342 13.4691 43.0912 13.3264 42.8164 13.3035ZM42.5911 32.2887L34.3024 24L42.5911 15.7113C44.1292 18.2147 44.9372 21.0581 44.9372 24C44.9372 26.9419 44.1292 29.7853 42.5911 32.2887Z" fill="black"/>
<path d="M29.0005 20.9606C29.2404 20.9606 29.4804 20.869 29.6634 20.686L39.4256 10.9238C39.6206 10.7288 39.7198 10.4579 39.6969 10.1832C39.6741 9.90834 39.5314 9.65766 39.3068 9.49762C36.2693 7.33209 32.7055 6.1875 29.0005 6.1875C25.2955 6.1875 21.7317 7.33209 18.6941 9.49762C18.4696 9.65766 18.3269 9.90844 18.304 10.1832C18.2811 10.458 18.3803 10.7288 18.5753 10.9238L28.3375 20.686C28.5206 20.8691 28.7606 20.9606 29.0005 20.9606ZM29.0005 8.0625C31.9424 8.0625 34.7859 8.87044 37.2893 10.4085L29.0005 18.6973L20.7117 10.4086C23.2151 8.87044 26.0586 8.0625 29.0005 8.0625Z" fill="black"/>
<path d="M15.1832 13.3035C14.9084 13.3264 14.6577 13.4691 14.4976 13.6936C12.3321 16.7313 11.1875 20.2951 11.1875 24C11.1875 27.7049 12.3321 31.2687 14.4976 34.3064C14.6577 34.5311 14.9084 34.6737 15.1832 34.6965C15.4663 34.7195 15.7339 34.6152 15.9238 34.4251L25.686 24.6629C26.0521 24.2968 26.0521 23.7032 25.686 23.337L15.9238 13.5748C15.7288 13.38 15.4579 13.2817 15.1832 13.3035ZM15.4086 32.2887C13.8704 29.7853 13.0625 26.9419 13.0625 24C13.0625 21.0582 13.8704 18.2147 15.4086 15.7113L23.6973 24L15.4086 32.2887Z" fill="black"/>
<path d="M18.694 38.5025C21.7316 40.668 25.2954 41.8126 29.0004 41.8126C32.7054 41.8126 36.2692 40.668 39.3068 38.5025C39.5314 38.3424 39.6741 38.0916 39.6969 37.8169C39.7198 37.5421 39.6206 37.2712 39.4256 37.0762L29.6634 27.3141C29.2973 26.9481 28.7037 26.9481 28.3375 27.3141L18.5753 37.0762C18.3803 37.2712 18.2811 37.5422 18.304 37.8169C18.3268 38.0917 18.4695 38.3424 18.694 38.5025ZM29.0004 29.3029L37.2892 37.5916C34.7858 39.1296 31.9423 39.9376 29.0004 39.9376C26.0585 39.9376 23.215 39.1296 20.7116 37.5916L29.0004 29.3029Z" fill="black"/>
<path d="M45.3125 41.25C45.8303 41.25 46.25 40.8303 46.25 40.3125C46.25 39.7947 45.8303 39.375 45.3125 39.375C44.7947 39.375 44.375 39.7947 44.375 40.3125C44.375 40.8303 44.7947 41.25 45.3125 41.25Z" fill="black"/>
<path d="M29 0C15.7267 0 5 10.7235 5 24C5 37.2732 15.7234 48 29 48C33.8904 48 38.594 46.5412 42.6023 43.7815C43.0288 43.4879 43.1365 42.9042 42.8428 42.4778C42.5492 42.0513 41.9656 41.9437 41.539 42.2373C37.8448 44.7806 33.5089 46.125 29 46.125C16.8002 46.125 6.875 36.1998 6.875 24C6.875 11.8002 16.8002 1.875 29 1.875C41.1998 1.875 51.125 11.8002 51.125 24C51.125 28.5088 49.7806 32.8447 47.2371 36.539C46.9435 36.9654 47.0512 37.5491 47.4777 37.8428C47.904 38.1363 48.4878 38.0286 48.7815 37.6023C51.5412 33.5938 53 28.8902 53 24C53 10.7268 42.2766 0 29 0Z" fill="black"/>
</svg>
